<svg id="Capa_1" enable-background="new 0 0 524.235 524.235" height="512" viewBox="0 0 524.235 524.235" width="512" style="fill:#fff" xmlns="http://www.w3.org/2000/svg">
    <path d="m458.706 65.529h-98.294v-65.529h-196.588v65.529h-98.295v110.581l196.588-12.287 196.588 12.287v-110.581z" />
    <path d="m59.134 395.464c21.278 3.782 35.365 11.665 47.175 18.414 12.687 7.263 21.086 12.063 41.02 12.063s28.333-4.799 41.02-12.063c16.142-9.215 36.22-20.702 73.577-20.702 37.388 0 57.482 11.471 73.625 20.686 12.735 7.279 21.15 12.079 41.148 12.079s28.413-4.799 41.148-12.079c11.817-6.745 25.909-14.617 47.197-18.394 21.968-72.257 59.192-177.502 59.192-177.502s-234.526-54.143-262.118-54.143c-27.591 0-262.118 54.143-262.118 54.143s37.186 105.244 59.134 177.498zm317.66-67.817c0 18.094-11.003 32.765-24.574 32.765s-24.574-14.671-24.574-32.765c0-18.096 11.003-32.765 24.574-32.765s24.574 14.669 24.574 32.765zm-204.779-32.765c13.571 0 24.574 14.669 24.574 32.765 0 18.094-11.003 32.765-24.574 32.765s-24.574-14.671-24.574-32.765c0-18.096 11.003-32.765 24.574-32.765z" />
    <path d="m491.471 425.941c-37.388 0-57.482 11.471-73.625 20.686-12.735 7.279-21.15 12.079-41.148 12.079s-28.413-4.8-41.148-12.079c-16.142-9.215-36.236-20.686-73.625-20.686-37.356 0-57.434 11.487-73.577 20.702-12.687 7.263-21.086 12.063-41.02 12.063s-28.333-4.8-41.02-12.063c-16.126-9.215-36.204-20.702-73.545-20.702-18.092 0-32.763 14.671-32.763 32.765s14.671 32.765 32.765 32.765c19.934 0 28.317 4.799 41.004 12.063 16.126 9.215 36.204 20.702 73.561 20.702s57.418-11.487 73.561-20.702c12.703-7.263 21.086-12.063 41.036-12.063 19.998 0 28.413 4.799 41.148 12.079 16.142 9.215 36.236 20.686 73.625 20.686s57.482-11.471 73.625-20.686c12.735-7.279 21.15-12.079 41.148-12.079 18.094 0 32.765-14.671 32.765-32.765s-14.673-32.765-32.767-32.765z" /></svg>
