<?xml version="1.0" encoding="iso-8859-1"?>
<!-- Generator: Adobe Illustrator 19.0.0, SVG Export Plug-In . SVG Version: 6.00 Build 0)  -->
<svg class="rct" fill="white" version="1.1" id="Capa_1" xmlns="http://www.w3.org/2000/svg" xmlns:xlink="http://www.w3.org/1999/xlink" x="0px" y="0px"
	 viewBox="0 0 512 512" style="enable-background:new 0 0 512 512;" xml:space="preserve">
<g>
	<g>
		<path d="M376,0c-41.353,0-75,34.647-75,76c0,41.353,33.647,75,75,75c41.353,0,75-33.647,75-75C451,34.647,417.353,0,376,0z"/>
	</g>
</g>
<g>
	<g>
		<path d="M256,181c-41.353,0-75,33.647-75,75c0,41.353,33.647,75,75,75c41.353,0,75-33.647,75-75C331,214.647,297.353,181,256,181z
			"/>
	</g>
</g>
<g>
	<g>
		<path d="M136,0C94.647,0,61,34.647,61,76c0,41.353,33.647,75,75,75c41.353,0,75-33.647,75-75C211,34.647,177.353,0,136,0z"/>
	</g>
</g>
<g>
	<g>
		<path d="M453.71,145.968C434.477,167.311,406.919,181,376,181c-30.742,0-58.173-13.521-77.395-34.651
			c-4.318,3.062-8.749,5.966-12.7,9.518C329.173,168.842,361,208.568,361,256c0,16.143-3.964,31.267-10.503,44.945
			c12.178,8.547,23.218,18.611,32.682,30.055H497c8.291,0,15-6.709,15-15v-60C512,210.535,488.253,170.444,453.71,145.968z"/>
	</g>
</g>
<g>
	<g>
		<path d="M226.095,155.867c-3.951-3.552-8.383-6.456-12.7-9.518C194.173,167.479,166.742,181,136,181
			c-30.919,0-58.477-13.689-77.71-35.032C23.747,170.444,0,210.535,0,256v60c0,8.291,6.709,15,15,15h113.82
			c9.465-11.444,20.504-21.508,32.682-30.055C154.964,287.267,151,272.143,151,256C151,208.568,182.827,168.842,226.095,155.867z"/>
	</g>
</g>
<g>
	<g>
		<path d="M333.71,325.968c-12.012,13.33-27.513,23.137-44.811,29.026l-15.5,22.258l26.019,52.039
			c2.886,5.771,1.758,12.744-2.813,17.314l-30,30c-2.93,2.93-6.768,4.395-10.605,4.395c-3.837,0-7.676-1.465-10.605-4.395l-30-30
			c-4.57-4.57-5.698-11.543-2.813-17.314l26.019-52.039l-15.5-22.258c-17.298-5.889-32.8-15.696-44.811-29.026
			C143.747,350.444,121,390.535,121,436v61c0,8.291,6.709,15,15,15h240c8.291,0,15-6.709,15-15v-61
			C391,390.535,368.253,350.444,333.71,325.968z"/>
	</g>
</g>
<g>
</g>
<g>
</g>
<g>
</g>
<g>
</g>
<g>
</g>
<g>
</g>
<g>
</g>
<g>
</g>
<g>
</g>
<g>
</g>
<g>
</g>
<g>
</g>
<g>
</g>
<g>
</g>
<g>
</g>
</svg>
